@startuml OpenAuth

class AuthenticatorController {
    - authenticatorService : AuthenticatorService

    + getAuthenticationToken(authenticationRequest : AuthenticationRequest) : ResponseEntity<?>
    + registerNewUser(newAccount : Account) : ResponseEntity<?>
    + validateToken(token : String) : ResponseEntity<?>
}
AuthenticatorController *-- AuthenticatorService
AuthenticatorController .. Account
AuthenticatorController .. AuthenticationRequest

class AuthenticatorService {
    - authenticationManager : AuthenticationManager
    - userDetailsService : MyUserDetailsService
    - jwtUtil : JwtUtil
    - accountService : AccountService

    + getRespAuthenticationToken(authenticationRequest : AuthenticationRequest) : ResponseEntity<?>
    - authenticationToken(authenticationRequest : AuthenticationRequest) : Optional<String>
    + getRegisterNewUserResponse(newAccount : Account) : ResponseEntity<?>
}

AuthenticatorService *-- AccountService
AuthenticatorService o-- JwtUtil
AuthenticatorService o-- MyUserDetailsService
AuthenticatorService . AuthenticationResponse
AuthenticatorService .. AuthenticationRequest
AuthenticatorService *-- PasswordEncoder

interface PasswordEncoder

class AccountService { 
    - accountRepository : AccountRepository

    + getAccountByEmail(email : String) : Account
    + saveAccount(account : Account) : boolean
}

AccountService *-- AccountRepository
AccountService o-- Account

class MyUserDetailsService {
    - accountService : AccountService

    + loadUserByUsername(email : String) : UserDetails
}

MyUserDetailsService *-- AccountService
MyUserDetailsService --> Account

interface AccountRepository {
    + findById(id : Long) : Optional<Account>
    + findByEmail(email : String) : Optional<Account>
}

class Account {
    - id : Long
    - email : String
    - password : String

    + Account()

    + getId() : Long
    + setId(id : Long) : void
    + getEmail() : String
    + setEmail(email : String) : void
    + getPassword() : String
    + setPassword(password : String) : void
}

class AuthenticationRequest {
    - email : String
    - password : String

    + AuthenticationRequest()

    + getEmail() : String
    + setEmail(email : String) : void
    + getPassword() : String
    + setPassword(password : String) : void
}

class AuthenticationResponse {
    - jwt : String

    + AuthenticationResponse(jwt : String)

    + getJwt() : String
}

class JwtUtil {
    - alg : Algorithm
    - minutes : String
    - hours : String
    - issuer : String

    - getTokenExpire() : long
    + getToken(subject : String) : String
    + getToken(subject : String, start : Date) : String
    - getDecodedToken(token : String) : Optional<DecodedJWT>
    - getSubject(token : String) : String
    + getEmail(token : String) : String
    - getExpDate(token : String) : Date
    - getIssDate(token : String) : Date
    + tokenIsValid(token : String) : boolean
}

class JwtRequestFilter {
    - userDetailsService : MyUserDetailsService
    - jwtUtil : JwtUtil

    # doFilterInternal(request : HttpServletRequest, response : HttpServletResponse, filterChain : FilterChaing) : void
}

JwtRequestFilter o-- JwtUtil
JwtRequestFilter o-- MyUserDetailsService

@enduml
